// Vitest Snapshot v1, https://vitest.dev/guide/snapshot.html

exports[`LanguageMenu.vue > should work 1`] = `
"<div class=\\"v-application v-theme--highcontrast v-layout v-layout--full-height v-locale--is-ltr\\" style=\\"z-index: 1000;\\" title=\\"Foobar\\">
  <div class=\\"v-application__wrap\\"><button type=\\"button\\" class=\\"v-btn v-theme--highcontrast text-primary v-btn--density-default v-btn--size-default v-btn--variant-outlined mx-2\\" data-cy=\\"language-menu__button\\" aria-haspopup=\\"menu\\" aria-expanded=\\"false\\" aria-owns=\\"v-menu-0\\"><span class=\\"v-btn__overlay\\"></span><span class=\\"v-btn__underlay\\"></span>
      <!----><span class=\\"v-btn__content\\" data-no-activator=\\"\\"><i class=\\"mdi-translate mdi v-icon notranslate v-theme--highcontrast v-icon--size-default v-icon--start\\" aria-hidden=\\"true\\" light=\\"\\"></i>en</span>
      <!---->
      <!---->
    </button>
    <!--teleport start-->
    <!--teleport end-->
  </div>
</div>"
`;

exports[`LanguageMenu.vue should work 1`] = `
<div class="v-menu"><button type="button" class="mx-2 v-btn v-btn--outlined theme--light v-size--default primary--text" data-cy="language-menu__button" role="button" aria-haspopup="true" aria-expanded="false"><span class="v-btn__content"><i aria-hidden="true" class="v-icon notranslate v-icon--left mdi mdi-translate theme--light"></i>en</span></button>
  <!---->
</div>
`;
