{
  "recordName": "test",
  "recordType": "journal-article",
  "formData": {
    "journal": {
      "titles": {
        "fullTitle": "JOURNAL FULL TITLE",
        "abbreviatedTitle": "JOURNAL ABBREV TITLE"
      },
      "doi": "10.5555/1234567890",
      "resourceUrl": "https://sandbox.publicknowledgeproject.org/index.php/jpc/",
      "issn": {
        "printIssn": "1111-2222",
        "onlineIssn": "3333-4444"
      }
    },
    "issue": {
      "publishedInPrint": "2008-02-29",
      "publishedOnline": "2008-02-29",
      "volume": "5",
      "issue": "11",
      "doi": "10.55555/1234521",
      "resourceUrl": "https://www.crossref.org/not-a-thing"
    },
    "article": {
      "title": "ARTICLE TITLE",
      "contributors": [
        {
          "givenName": "Josiah",
          "familyName": "Carberry",
          "suffix": "Jr.",
          "affiliation": {
            "institution": "AFFIL",
            "ror": ""
          },
          "orcid": "https://orcid.org/0000-0002-1825-0097",
          "role": "first-author",
          "sequence": "first"
        },
        {
          "role": "additional-author",
          "familyName": "carberry",
          "givenName": "j",
          "affiliation": {
            "institution": "University of Oxford",
            "ror": "https://ror.org/052gg0110"
          },
          "sequence": "additional"
        }
      ],
      "abstract": [
        {
          "abstract": "<jats:p>Here is a simple abstract</jats:p>",
          "language": "en"
        },
        {
          "abstract": "Dies ist eine einfache Zusammenfassung, die nicht in JATS-Tags eingefasst ist.",
          "language": "de"
        }
      ],
      "publicationDates": {
        "publishedInPrint": "2008-08-14",
        "publishedOnline": "2008-08-13"
      },
      "doi": "10.5555/12345678",
      "resourceUrl": "https://sandbox.publicknowledgeproject.org/index.php/jpc/article/view/497",
      "funding": [
        {
          "awardNumber": "CHE-1152342",
          "funder-id": "https://doi.org/10.13039/100000001",
          "funder-name": "National Science Foundation"
        }
      ],
      "license": "http://psychoceramicsproprietrylicenseV1.com",
      "simCheckUrl": "https://doi.org/10.15223/policy-001"
    }
  },
  "fileName": "journal_article_1.json",
  "schemaName": "Crossref Journal Article Schema",
  "schemaVersion": "1.0.0",
  "recordExtension": "json"
}
