{
      "type": "HorizontalLayout",
      "options": {
        "breakHorizontal": "md"
      },
      "elements": [
        {
          "type": "Control",
          "scope": "#/properties/institution",
          "options": {
            "hideHorizontalLabel": true
          },
          "i18n": "records-grant-affiliation"
        },
        {
          "type": "Spacer"
        }
      ]
}
